{
    "private": true,
    "scripts": {
        "dev": "vite",
        "build": "vite build"
    },
    "devDependencies": {
        "@originjs/vite-plugin-commonjs": "^1.0.3",
        "@vitejs/plugin-vue": "^4.0.0",
        "axios": "^1.3",
        "bootstrap": "^5.2.3",
        "cross-env": "^7.0",
        "jquery": "^3.6",
        "laravel-vite-plugin": "^0.7.4",
        "lodash": "^4.17.21",
        "popper.js": "^1.12",
        "sass": "^1.59.3",
        "vite": "^4.1.4",
        "vite-plugin-full-reload": "^1.0.5",
        "vue": "^3.2.47"
    },
    "dependencies": {
        "console-log-to-file": "^1.1.0"
    }
}
